{
	"pic": null,
	"nat_id": null,
	"hstreet": null,
	"aquacultureId": null,
	"villageid": null,
	"computer_at_home": null,
	"regTime": "2017-10-18 02:23:21.047217",
	"id": 30,
	"lname": "User",
	"fname": "Test",
	"_class": 3,
	"type": null,
	"email": "testuser@test.com",
	"fisherFolkId": null,
	"username": "testuser",
	"enable": null,
	"countryid": 1,
	"passport": null,
	"mobileNum": "123-4567",
	"homeNum": "123-4567",
	"nat_dp": null,
	"country": "Trinidad",
	"age": null,
	"gcmId": null,
	"ext": null,
	"disabilities": null,
	"name": "Trinidad"
}