<?xml version='1.0' encoding='UTF-8'?>
<kml xmlns='http://www.opengis.net/kml/2.2'>
	<Document>
		<name>Grenada Villages</name>
		<Placemark>
			<name>Becke Moui</name>
			<styleUrl>#icon-503-DB4436-nodesc</styleUrl>
			<Point>
				<coordinates>-61.6961288,12.0195093,0.0</coordinates>
			</Point>
		</Placemark>
		<Placemark>
			<name>Corinth</name>
			<styleUrl>#icon-503-DB4436-nodesc</styleUrl>
			<Point>
				<coordinates>-61.6748428,12.0218599,0.0</coordinates>
			</Point>
		</Placemark>
		<Placemark>
			<name>Crochu</name>
			<styleUrl>#icon-503-DB4436-nodesc</styleUrl>
			<Point>
				<coordinates>-61.6378069,12.044483,0.0</coordinates>
			</Point>
		</Placemark>
		<Placemark>
			<name>Hope Bacelot</name>
			<styleUrl>#icon-503-DB4436-nodesc</styleUrl>
			<Point>
				<coordinates>-61.6180658,12.0783511,0.0</coordinates>
			</Point>
		</Placemark>
		<Placemark>
			<name>Marquis Island</name>
			<styleUrl>#icon-503-DB4436-nodesc</styleUrl>
			<Point>
				<coordinates>-61.6176367,12.0996687,0.0</coordinates>
			</Point>
		</Placemark>
		<Placemark>
			<name>Soubise</name>
			<styleUrl>#icon-503-DB4436-nodesc</styleUrl>
			<Point>
				<coordinates>-61.62673470000001,12.1124667,0.0</coordinates>
			</Point>
		</Placemark>
		<Placemark>
			<name>Harford</name>
			<styleUrl>#icon-503-DB4436-nodesc</styleUrl>
			<Point>
				<coordinates>-61.635317799999996,12.1184669,0.0</coordinates>
			</Point>
		</Placemark>
		<Placemark>
			<name>Grenville</name>
			<styleUrl>#icon-503-DB4436-nodesc</styleUrl>
			<Point>
				<coordinates>-61.621542,12.1240474,0.0</coordinates>
			</Point>
		</Placemark>
		<Placemark>
			<name>Simon</name>
			<styleUrl>#icon-503-DB4436-nodesc</styleUrl>
			<Point>
				<coordinates>-61.610469800000004,12.1360472,0.0</coordinates>
			</Point>
		</Placemark>
		<Placemark>
			<name>Antoine</name>
			<styleUrl>#icon-503-DB4436-nodesc</styleUrl>
			<Point>
				<coordinates>-61.6051054,12.1824048,0.0</coordinates>
			</Point>
		</Placemark>
		<Placemark>
			<name>Bedford</name>
			<styleUrl>#icon-503-DB4436-nodesc</styleUrl>
			<Point>
				<coordinates>-61.60574909999999,12.2226727,0.0</coordinates>
			</Point>
		</Placemark>
		<Placemark>
			<name>Waltham</name>
			<styleUrl>#icon-503-DB4436-nodesc</styleUrl>
			<Point>
				<coordinates>-61.6988754,12.2039657,0.0</coordinates>
			</Point>
		</Placemark>
		<Placemark>
			<name>Victoria</name>
			<styleUrl>#icon-503-DB4436-nodesc</styleUrl>
			<Point>
				<coordinates>-61.7070723,12.1950731,0.0</coordinates>
			</Point>
		</Placemark>
		<Placemark>
			<name>Gouyave</name>
			<styleUrl>#icon-503-DB4436-nodesc</styleUrl>
			<Point>
				<coordinates>-61.72634119999999,12.1710364,0.0</coordinates>
			</Point>
		</Placemark>
		<Placemark>
			<name>Dothan</name>
			<styleUrl>#icon-503-DB4436-nodesc</styleUrl>
			<Point>
				<coordinates>-61.74183370000001,12.1423825,0.0</coordinates>
			</Point>
		</Placemark>
		<Placemark>
			<name>Grand Roy</name>
			<styleUrl>#icon-503-DB4436-nodesc</styleUrl>
			<Point>
				<coordinates>-61.7471123,12.1311383,0.0</coordinates>
			</Point>
		</Placemark>
		<Placemark>
			<name>Marigot</name>
			<styleUrl>#icon-503-DB4436-nodesc</styleUrl>
			<Point>
				<coordinates>-61.7465115,12.1232502,0.0</coordinates>
			</Point>
		</Placemark>
		<Placemark>
			<name>Concord</name>
			<styleUrl>#icon-503-DB4436-nodesc</styleUrl>
			<Point>
				<coordinates>-61.74488070000001,12.118005400000001,0.0</coordinates>
			</Point>
		</Placemark>
		<Placemark>
			<name>Morne Docteur</name>
			<styleUrl>#icon-503-DB4436-nodesc</styleUrl>
			<Point>
				<coordinates>-61.7384863,12.1113338,0.0</coordinates>
			</Point>
		</Placemark>
		<Placemark>
			<name>Birzan</name>
			<styleUrl>#icon-503-DB4436-nodesc</styleUrl>
			<Point>
				<coordinates>-61.751146299999995,12.104032700000001,0.0</coordinates>
			</Point>
		</Placemark>
		<Placemark>
			<name>St George's</name>
			<styleUrl>#icon-503-DB4436-nodesc</styleUrl>
			<Point>
				<coordinates>-61.75045970000001,12.0561506,0.0</coordinates>
			</Point>
		</Placemark>
		<Placemark>
			<name>Belmont</name>
			<styleUrl>#icon-503-DB4436-nodesc</styleUrl>
			<Point>
				<coordinates>-61.75376419999999,12.0315138,0.0</coordinates>
			</Point>
		</Placemark>
		<Placemark>
			<name>Mourne Rouge</name>
			<styleUrl>#icon-503-DB4436-nodesc</styleUrl>
			<Point>
				<coordinates>-61.76745410000001,12.0174106,0.0</coordinates>
			</Point>
		</Placemark>
		<Style id='icon-503-DB4436-nodesc-normal'>
			<IconStyle>
				<color>ff3644DB</color>
				<scale>1.1</scale>
				<Icon>
					<href>http://www.gstatic.com/mapspro/images/stock/503-wht-blank_maps.png</href>
				</Icon>
				<hotSpot x='16' y='31' xunits='pixels' yunits='insetPixels'>
				</hotSpot>
			</IconStyle>
			<LabelStyle>
				<scale>0.0</scale>
			</LabelStyle>
			<BalloonStyle>
				<text><![CDATA[<h3>$[name]</h3>]]></text>
			</BalloonStyle>
		</Style>
		<Style id='icon-503-DB4436-nodesc-highlight'>
			<IconStyle>
				<color>ff3644DB</color>
				<scale>1.1</scale>
				<Icon>
					<href>http://www.gstatic.com/mapspro/images/stock/503-wht-blank_maps.png</href>
				</Icon>
				<hotSpot x='16' y='31' xunits='pixels' yunits='insetPixels'>
				</hotSpot>
			</IconStyle>
			<LabelStyle>
				<scale>1.1</scale>
			</LabelStyle>
			<BalloonStyle>
				<text><![CDATA[<h3>$[name]</h3>]]></text>
			</BalloonStyle>
		</Style>
		<StyleMap id='icon-503-DB4436-nodesc'>
			<Pair>
				<key>normal</key>
				<styleUrl>#icon-503-DB4436-nodesc-normal</styleUrl>
			</Pair>
			<Pair>
				<key>highlight</key>
				<styleUrl>#icon-503-DB4436-nodesc-highlight</styleUrl>
			</Pair>
		</StyleMap>
	</Document>
</kml>